{
  "swagger": "2.0",
  "info": {
    "version": "1.0",
    "title": "Mobilender",
    "contact": {}
  },
  "host": "example.com",
  "basePath": "/",
  "securityDefinitions": {
    "Authorization": {
      "type": "apiKey",
      "description": "",
      "name": "Authorization",
      "in": "header"
    }
  },
  "schemes": [
    "http"
  ],
  "consumes": [
    "application/json"
  ],
  "produces": [
    "application/json"
  ],
  "paths": {
    "/orders": {
      "post": {
        "summary": "Crear pedido",
        "tags": [
          "Pedidos"
        ],
        "operationId": "Crearpedido",
        "deprecated": false,
        "produces": [
          "application/json"
        ],
        "parameters": [
          {
            "name": "Body",
            "in": "body",
            "required": true,
            "description": "",
            "schema": {
              "$ref": "#/definitions/CrearpedidoRequest"
            }
          }
        ],
        "responses": {
          "201": {
            "description": "",
            "schema": {
              "$ref": "#/definitions/Pedidohaciasucursal"
            },
            "examples": {
              "application/json": {
                "pk": 7,
                "customer": 2,
                "is_urgent": false,
                "location_type": "s",
                "distribution_center": null,
                "subsidiary": 1,
                "associated_company": null,
                "created_at": "2021-01-12T00:13:46.12722Z",
                "supplied_at": null,
                "items": [
                  {
                    "item": 1,
                    "quantity": 3
                  }
                ]
              }
            },
            "headers": {
              "Date": {
                "type": "string",
                "default": "Tue, 12 Jan 2021 00:13:46 GMT"
              },
              "Server": {
                "type": "string",
                "default": "WSGIServer/0.2 CPython/3.7.9"
              },
              "Vary": {
                "type": "string",
                "default": "Accept"
              },
              "Allow": {
                "type": "string",
                "default": "GET, POST, HEAD, OPTIONS"
              },
              "X-Frame-Options": {
                "type": "string",
                "default": "DENY"
              },
              "Content-Length": {
                "type": "string",
                "default": "223"
              },
              "X-Content-Type-Options": {
                "type": "string",
                "default": "nosniff"
              },
              "Referrer-Policy": {
                "type": "string",
                "default": "same-origin"
              }
            }
          },
          "400": {
            "description": "Bad Request",
            "schema": {
              "$ref": "#/definitions/Erroralescogeruntipodeentregaperonoproveeelidentificadornecesario"
            },
            "examples": {
              "application/json": {
                "distribution_center": [
                  "Se necesita el centro de distribución"
                ]
              }
            }
          }
        }
      },
      "get": {
        "description": "Servicio para listar todos los pedidos. Tiene filtros para tipo de cliente, si el pedido ya fue entregado, si es urgente y a donde se realizó (centro de distribución, sucursal, empresa asociada)",
        "summary": "Listar pedidos",
        "tags": [
          "Pedidos"
        ],
        "operationId": "Listarpedidos",
        "deprecated": false,
        "produces": [
          "application/json"
        ],
        "parameters": [],
        "responses": {
          "200": {
            "description": "",
            "schema": {
              "$ref": "#/definitions/PedidosdeclientesPlatino%2Curgentes%2Cquenohansidoentregadosysonhaciaunaempresaasociada"
            },
            "examples": {
              "application/json": {
                "count": 1,
                "next": null,
                "previous": null,
                "results": [
                  {
                    "pk": 3,
                    "customer": 2,
                    "is_urgent": true,
                    "location_type": "a",
                    "distribution_center": null,
                    "subsidiary": null,
                    "associated_company": 1,
                    "created_at": "2021-01-11T06:29:04.921Z",
                    "supplied_at": null,
                    "price": "0.00",
                    "items": [
                      {
                        "item": 1,
                        "quantity": 10
                      }
                    ]
                  }
                ]
              }
            },
            "headers": {
              "Date": {
                "type": "string",
                "default": "Tue, 12 Jan 2021 00:07:22 GMT"
              },
              "Server": {
                "type": "string",
                "default": "WSGIServer/0.2 CPython/3.7.9"
              },
              "Vary": {
                "type": "string",
                "default": "Accept"
              },
              "Allow": {
                "type": "string",
                "default": "GET, POST, HEAD, OPTIONS"
              },
              "X-Frame-Options": {
                "type": "string",
                "default": "DENY"
              },
              "Content-Length": {
                "type": "string",
                "default": "290"
              },
              "X-Content-Type-Options": {
                "type": "string",
                "default": "nosniff"
              },
              "Referrer-Policy": {
                "type": "string",
                "default": "same-origin"
              }
            }
          },
          "401": {
            "description": "Unauthorized",
            "schema": {
              "$ref": "#/definitions/Correoocontrase%C3%B1ainvalido"
            },
            "examples": {
              "application/json": {
                "detail": "Authentication credentials were not provided."
              }
            }
          }
        }
      }
    },
    "/users/signin": {
      "post": {
        "description": "Servicio para iniciar sesión mediante correo y contraseña.\nEsta petición tiene una función que en caso de que el status_code de la respuesta sea 200, guarda en automático el token.",
        "summary": "Iniciar sesión",
        "tags": [
          "Misc"
        ],
        "operationId": "Iniciarsesión",
        "deprecated": false,
        "produces": [
          "application/json"
        ],
        "parameters": [
          {
            "name": "Body",
            "in": "body",
            "required": true,
            "description": "",
            "schema": {
              "$ref": "#/definitions/Iniciarsesi%C3%B3nRequest"
            }
          }
        ],
        "responses": {
          "200": {
            "description": "",
            "schema": {
              "$ref": "#/definitions/Ok"
            },
            "examples": {
              "application/json": {
                "token": "569f65584f15eaf9979e6176d8434243f385fa5b",
                "user": "Usuario Prueba"
              }
            },
            "headers": {
              "Date": {
                "type": "string",
                "default": "Mon, 11 Jan 2021 23:51:45 GMT"
              },
              "Server": {
                "type": "string",
                "default": "WSGIServer/0.2 CPython/3.7.9"
              },
              "Vary": {
                "type": "string",
                "default": "Accept"
              },
              "Allow": {
                "type": "string",
                "default": "POST, OPTIONS"
              },
              "X-Frame-Options": {
                "type": "string",
                "default": "DENY"
              },
              "Content-Length": {
                "type": "string",
                "default": "76"
              },
              "X-Content-Type-Options": {
                "type": "string",
                "default": "nosniff"
              },
              "Referrer-Policy": {
                "type": "string",
                "default": "same-origin"
              }
            }
          },
          "400": {
            "description": "Bad Request",
            "schema": {
              "$ref": "#/definitions/Campofaltante"
            },
            "examples": {
              "application/json": {
                "password": [
                  "Por favor, ingresar \"contraseña\"."
                ]
              }
            }
          },
          "401": {
            "description": "Unauthorized",
            "schema": {
              "$ref": "#/definitions/Correoocontrase%C3%B1ainvalido"
            },
            "examples": {
              "application/json": {
                "detail": "Usuario o contraseña no válidos"
              }
            }
          }
        },
        "security": []
      }
    },
    "/customers": {
      "get": {
        "description": "Obtener lista de clientes para poder seleccionar al que se le va a generar un pedido.",
        "summary": "Listar clientes",
        "tags": [
          "Misc"
        ],
        "operationId": "Listarclientes",
        "deprecated": false,
        "produces": [
          "application/json"
        ],
        "parameters": [],
        "responses": {
          "200": {
            "description": "",
            "schema": {
              "$ref": "#/definitions/Listarclientesconb%C3%BAsquedapornameoc%C3%B3digo"
            },
            "examples": {
              "application/json": {
                "count": 1,
                "next": null,
                "previous": null,
                "results": [
                  {
                    "pk": 1,
                    "name": "Mixup Plaza Universidad",
                    "code": "20001CDMXMUPU",
                    "customer_type": "Plata"
                  }
                ]
              }
            },
            "headers": {
              "Date": {
                "type": "string",
                "default": "Tue, 12 Jan 2021 00:16:01 GMT"
              },
              "Server": {
                "type": "string",
                "default": "WSGIServer/0.2 CPython/3.7.9"
              },
              "Vary": {
                "type": "string",
                "default": "Accept"
              },
              "Allow": {
                "type": "string",
                "default": "GET, HEAD, OPTIONS"
              },
              "X-Frame-Options": {
                "type": "string",
                "default": "DENY"
              },
              "Content-Length": {
                "type": "string",
                "default": "140"
              },
              "X-Content-Type-Options": {
                "type": "string",
                "default": "nosniff"
              },
              "Referrer-Policy": {
                "type": "string",
                "default": "same-origin"
              }
            }
          }
        }
      }
    },
    "/businesses/items": {
      "get": {
        "description": "Servicio para obtener lista de artículos, se puede filtrar por proveedor o hacer una búsqueda por código o descripción",
        "summary": "Listar artículos",
        "tags": [
          "Misc"
        ],
        "operationId": "Listarartículos",
        "deprecated": false,
        "produces": [
          "application/json"
        ],
        "parameters": [],
        "responses": {
          "200": {
            "description": "",
            "schema": {
              "$ref": "#/definitions/Ok1"
            },
            "examples": {
              "application/json": {
                "count": 4,
                "next": null,
                "previous": null,
                "results": [
                  {
                    "pk": 1,
                    "code": "00000001",
                    "description": "LCD Mini Cleaning Kit",
                    "price": "0.00"
                  },
                  {
                    "pk": 2,
                    "code": "00000002",
                    "description": "Removedor de Polvo para usos múltiples",
                    "price": "0.00"
                  },
                  {
                    "pk": 3,
                    "code": "00000003",
                    "description": "Monitor LG 27\" LCD",
                    "price": "0.00"
                  },
                  {
                    "pk": 4,
                    "code": "00000004",
                    "description": "Laptop Lenovo 15\" Thinkpad",
                    "price": "0.00"
                  }
                ]
              }
            },
            "headers": {
              "Date": {
                "type": "string",
                "default": "Tue, 12 Jan 2021 00:18:25 GMT"
              },
              "Server": {
                "type": "string",
                "default": "WSGIServer/0.2 CPython/3.7.9"
              },
              "Vary": {
                "type": "string",
                "default": "Accept"
              },
              "Allow": {
                "type": "string",
                "default": "GET, HEAD, OPTIONS"
              },
              "X-Frame-Options": {
                "type": "string",
                "default": "DENY"
              },
              "Content-Length": {
                "type": "string",
                "default": "393"
              },
              "X-Content-Type-Options": {
                "type": "string",
                "default": "nosniff"
              },
              "Referrer-Policy": {
                "type": "string",
                "default": "same-origin"
              }
            }
          }
        }
      }
    },
    "/businesses/distribution-centers": {
      "get": {
        "summary": "Listar centros de distribución",
        "tags": [
          "Misc"
        ],
        "operationId": "Listarcentrosdedistribución",
        "deprecated": false,
        "produces": [
          "application/json"
        ],
        "parameters": [],
        "responses": {
          "200": {
            "description": "",
            "schema": {
              "$ref": "#/definitions/Listarcentrosdedistribuci%C3%B3nquecontenganlapalabraiu"
            },
            "examples": {
              "application/json": {
                "count": 1,
                "next": null,
                "previous": null,
                "results": [
                  {
                    "id": 3,
                    "warehouse": "Ciudad de México"
                  }
                ]
              }
            },
            "headers": {
              "Date": {
                "type": "string",
                "default": "Tue, 12 Jan 2021 00:21:48 GMT"
              },
              "Server": {
                "type": "string",
                "default": "WSGIServer/0.2 CPython/3.7.9"
              },
              "Vary": {
                "type": "string",
                "default": "Accept"
              },
              "Allow": {
                "type": "string",
                "default": "GET, HEAD, OPTIONS"
              },
              "X-Frame-Options": {
                "type": "string",
                "default": "DENY"
              },
              "Content-Length": {
                "type": "string",
                "default": "92"
              },
              "X-Content-Type-Options": {
                "type": "string",
                "default": "nosniff"
              },
              "Referrer-Policy": {
                "type": "string",
                "default": "same-origin"
              }
            }
          }
        }
      }
    },
    "/businesses/subsidiaries": {
      "get": {
        "summary": "Listar sucursales",
        "tags": [
          "Misc"
        ],
        "operationId": "Listarsucursales",
        "deprecated": false,
        "produces": [
          "application/json"
        ],
        "parameters": [],
        "responses": {
          "200": {
            "description": "",
            "schema": {
              "$ref": "#/definitions/ok2"
            },
            "examples": {
              "application/json": {
                "count": 2,
                "next": null,
                "previous": null,
                "results": [
                  {
                    "id": 1,
                    "reference": "Poliforum Buenavista Eje 1 Nte 259",
                    "code": "01003001"
                  },
                  {
                    "id": 2,
                    "reference": "San Pedro Garza García  Av Roberto Garza Sada 1000",
                    "code": "02000101"
                  }
                ]
              }
            },
            "headers": {
              "Date": {
                "type": "string",
                "default": "Tue, 12 Jan 2021 00:22:52 GMT"
              },
              "Server": {
                "type": "string",
                "default": "WSGIServer/0.2 CPython/3.7.9"
              },
              "Vary": {
                "type": "string",
                "default": "Accept"
              },
              "Allow": {
                "type": "string",
                "default": "GET, HEAD, OPTIONS"
              },
              "X-Frame-Options": {
                "type": "string",
                "default": "DENY"
              },
              "Content-Length": {
                "type": "string",
                "default": "220"
              },
              "X-Content-Type-Options": {
                "type": "string",
                "default": "nosniff"
              },
              "Referrer-Policy": {
                "type": "string",
                "default": "same-origin"
              }
            }
          }
        }
      }
    },
    "/businesses/associated-companies": {
      "get": {
        "summary": "Listar empresas asociadas",
        "tags": [
          "Misc"
        ],
        "operationId": "Listarempresasasociadas",
        "deprecated": false,
        "produces": [
          "application/json"
        ],
        "parameters": [],
        "responses": {
          "200": {
            "description": "",
            "schema": {
              "$ref": "#/definitions/ok2"
            },
            "examples": {
              "application/json": {
                "count": 2,
                "next": null,
                "previous": null,
                "results": [
                  {
                    "id": 1,
                    "reference": "Techno Plaza Puesto 31",
                    "code": "01002001"
                  },
                  {
                    "id": 2,
                    "reference": "Techno Plaza Puesto 54",
                    "code": "01002002"
                  }
                ]
              }
            },
            "headers": {
              "Date": {
                "type": "string",
                "default": "Tue, 12 Jan 2021 00:24:55 GMT"
              },
              "Server": {
                "type": "string",
                "default": "WSGIServer/0.2 CPython/3.7.9"
              },
              "Vary": {
                "type": "string",
                "default": "Accept"
              },
              "Allow": {
                "type": "string",
                "default": "GET, HEAD, OPTIONS"
              },
              "X-Frame-Options": {
                "type": "string",
                "default": "DENY"
              },
              "Content-Length": {
                "type": "string",
                "default": "179"
              },
              "X-Content-Type-Options": {
                "type": "string",
                "default": "nosniff"
              },
              "Referrer-Policy": {
                "type": "string",
                "default": "same-origin"
              }
            }
          }
        }
      }
    }
  },
  "definitions": {
    "CrearpedidoRequest": {
      "title": "CrearpedidoRequest",
      "example": {
        "customer": 2,
        "is_urgent": false,
        "location_type": "d",
        "items": [
          {
            "item": 1,
            "quantity": 3
          }
        ],
        "distribution_center": 1
      },
      "type": "object",
      "properties": {
        "customer": {
          "type": "integer",
          "format": "int32"
        },
        "is_urgent": {
          "type": "boolean"
        },
        "location_type": {
          "type": "string"
        },
        "items": {
          "type": "array",
          "items": {
            "$ref": "#/definitions/Item"
          }
        },
        "distribution_center": {
          "type": "integer",
          "format": "int32"
        }
      },
      "required": [
        "customer",
        "is_urgent",
        "location_type",
        "items",
        "distribution_center"
      ]
    },
    "Item": {
      "title": "Item",
      "example": {
        "item": 1,
        "quantity": 3
      },
      "type": "object",
      "properties": {
        "item": {
          "type": "integer",
          "format": "int32"
        },
        "quantity": {
          "type": "integer",
          "format": "int32"
        }
      },
      "required": [
        "item",
        "quantity"
      ]
    },
    "Pedidohaciasucursal": {
      "title": "Pedidohaciasucursal",
      "example": {
        "pk": 7,
        "customer": 2,
        "is_urgent": false,
        "location_type": "s",
        "distribution_center": null,
        "subsidiary": 1,
        "associated_company": null,
        "created_at": "2021-01-12T00:13:46.12722Z",
        "supplied_at": null,
        "items": [
          {
            "item": 1,
            "quantity": 3
          }
        ]
      },
      "type": "object",
      "properties": {
        "pk": {
          "type": "integer",
          "format": "int32"
        },
        "customer": {
          "type": "integer",
          "format": "int32"
        },
        "is_urgent": {
          "type": "boolean"
        },
        "location_type": {
          "type": "string"
        },
        "distribution_center": {
          "type": "string"
        },
        "subsidiary": {
          "type": "integer",
          "format": "int32"
        },
        "associated_company": {
          "type": "string"
        },
        "created_at": {
          "type": "string"
        },
        "supplied_at": {
          "type": "string"
        },
        "items": {
          "type": "array",
          "items": {
            "$ref": "#/definitions/Item"
          }
        }
      },
      "required": [
        "pk",
        "customer",
        "is_urgent",
        "location_type",
        "distribution_center",
        "subsidiary",
        "associated_company",
        "created_at",
        "supplied_at",
        "items"
      ]
    },
    "Erroralescogeruntipodeentregaperonoproveeelidentificadornecesario": {
      "title": "Erroralescogeruntipodeentregaperonoproveeelidentificadornecesario",
      "example": {
        "distribution_center": [
          "Se necesita el centro de distribución"
        ]
      },
      "type": "object",
      "properties": {
        "distribution_center": {
          "type": "array",
          "items": {
            "type": "string"
          }
        }
      },
      "required": [
        "distribution_center"
      ]
    },
    "PedidosdeclientesPlatino,urgentes,quenohansidoentregadosysonhaciaunaempresaasociada": {
      "title": "PedidosdeclientesPlatino,urgentes,quenohansidoentregadosysonhaciaunaempresaasociada",
      "example": {
        "count": 1,
        "next": null,
        "previous": null,
        "results": [
          {
            "pk": 3,
            "customer": 2,
            "is_urgent": true,
            "location_type": "a",
            "distribution_center": null,
            "subsidiary": null,
            "associated_company": 1,
            "created_at": "2021-01-11T06:29:04.921Z",
            "supplied_at": null,
            "price": "0.00",
            "items": [
              {
                "item": 1,
                "quantity": 10
              }
            ]
          }
        ]
      },
      "type": "object",
      "properties": {
        "count": {
          "type": "integer",
          "format": "int32"
        },
        "next": {
          "type": "string"
        },
        "previous": {
          "type": "string"
        },
        "results": {
          "type": "array",
          "items": {
            "$ref": "#/definitions/Result"
          }
        }
      },
      "required": [
        "count",
        "next",
        "previous",
        "results"
      ]
    },
    "Result": {
      "title": "Result",
      "example": {
        "pk": 3,
        "customer": 2,
        "is_urgent": true,
        "location_type": "a",
        "distribution_center": null,
        "subsidiary": null,
        "associated_company": 1,
        "created_at": "2021-01-11T06:29:04.921Z",
        "supplied_at": null,
        "price": "0.00",
        "items": [
          {
            "item": 1,
            "quantity": 10
          }
        ]
      },
      "type": "object",
      "properties": {
        "pk": {
          "type": "integer",
          "format": "int32"
        },
        "customer": {
          "type": "integer",
          "format": "int32"
        },
        "is_urgent": {
          "type": "boolean"
        },
        "location_type": {
          "type": "string"
        },
        "distribution_center": {
          "type": "string"
        },
        "subsidiary": {
          "type": "string"
        },
        "associated_company": {
          "type": "integer",
          "format": "int32"
        },
        "created_at": {
          "type": "string"
        },
        "supplied_at": {
          "type": "string"
        },
        "price": {
          "type": "string"
        },
        "items": {
          "type": "array",
          "items": {
            "$ref": "#/definitions/Item"
          }
        }
      },
      "required": [
        "pk",
        "customer",
        "is_urgent",
        "location_type",
        "distribution_center",
        "subsidiary",
        "associated_company",
        "created_at",
        "supplied_at",
        "price",
        "items"
      ]
    },
    "IniciarsesiónRequest": {
      "title": "IniciarsesiónRequest",
      "example": {
        "email": "prueba@mobilender.test",
        "password": "12345mobil"
      },
      "type": "object",
      "properties": {
        "email": {
          "type": "string"
        },
        "password": {
          "type": "string"
        }
      },
      "required": [
        "email",
        "password"
      ]
    },
    "Campofaltante": {
      "title": "Campofaltante",
      "example": {
        "password": [
          "Por favor, ingresar \"contraseña\"."
        ]
      },
      "type": "object",
      "properties": {
        "password": {
          "type": "array",
          "items": {
            "type": "string"
          }
        }
      },
      "required": [
        "password"
      ]
    },
    "Ok": {
      "title": "Ok",
      "example": {
        "token": "569f65584f15eaf9979e6176d8434243f385fa5b",
        "user": "Usuario Prueba"
      },
      "type": "object",
      "properties": {
        "token": {
          "type": "string"
        },
        "user": {
          "type": "string"
        }
      },
      "required": [
        "token",
        "user"
      ]
    },
    "Correoocontraseñainvalido": {
      "title": "Correoocontraseñainvalido",
      "example": {
        "detail": "Usuario o contraseña no válidos"
      },
      "type": "object",
      "properties": {
        "detail": {
          "type": "string"
        }
      },
      "required": [
        "detail"
      ]
    },
    "Listarclientesconbúsquedapornameocódigo": {
      "title": "Listarclientesconbúsquedapornameocódigo",
      "example": {
        "count": 1,
        "next": null,
        "previous": null,
        "results": [
          {
            "pk": 1,
            "name": "Mixup Plaza Universidad",
            "code": "20001CDMXMUPU",
            "customer_type": "Plata"
          }
        ]
      },
      "type": "object",
      "properties": {
        "count": {
          "type": "integer",
          "format": "int32"
        },
        "next": {
          "type": "string"
        },
        "previous": {
          "type": "string"
        },
        "results": {
          "type": "array",
          "items": {
            "$ref": "#/definitions/Result1"
          }
        }
      },
      "required": [
        "count",
        "next",
        "previous",
        "results"
      ]
    },
    "Result1": {
      "title": "Result1",
      "example": {
        "pk": 1,
        "name": "Mixup Plaza Universidad",
        "code": "20001CDMXMUPU",
        "customer_type": "Plata"
      },
      "type": "object",
      "properties": {
        "pk": {
          "type": "integer",
          "format": "int32"
        },
        "name": {
          "type": "string"
        },
        "code": {
          "type": "string"
        },
        "customer_type": {
          "type": "string"
        }
      },
      "required": [
        "pk",
        "name",
        "code",
        "customer_type"
      ]
    },
    "Ok1": {
      "title": "Ok1",
      "example": {
        "count": 4,
        "next": null,
        "previous": null,
        "results": [
          {
            "pk": 1,
            "code": "00000001",
            "description": "LCD Mini Cleaning Kit",
            "price": "0.00"
          },
          {
            "pk": 2,
            "code": "00000002",
            "description": "Removedor de Polvo para usos múltiples",
            "price": "0.00"
          },
          {
            "pk": 3,
            "code": "00000003",
            "description": "Monitor LG 27\" LCD",
            "price": "0.00"
          },
          {
            "pk": 4,
            "code": "00000004",
            "description": "Laptop Lenovo 15\" Thinkpad",
            "price": "0.00"
          }
        ]
      },
      "type": "object",
      "properties": {
        "count": {
          "type": "integer",
          "format": "int32"
        },
        "next": {
          "type": "string"
        },
        "previous": {
          "type": "string"
        },
        "results": {
          "type": "array",
          "items": {
            "$ref": "#/definitions/Result2"
          }
        }
      },
      "required": [
        "count",
        "next",
        "previous",
        "results"
      ]
    },
    "Result2": {
      "title": "Result2",
      "example": {
        "pk": 1,
        "code": "00000001",
        "description": "LCD Mini Cleaning Kit",
        "price": "0.00"
      },
      "type": "object",
      "properties": {
        "pk": {
          "type": "integer",
          "format": "int32"
        },
        "code": {
          "type": "string"
        },
        "description": {
          "type": "string"
        },
        "price": {
          "type": "string"
        }
      },
      "required": [
        "pk",
        "code",
        "description",
        "price"
      ]
    },
    "Listarcentrosdedistribuciónquecontenganlapalabraiu": {
      "title": "Listarcentrosdedistribuciónquecontenganlapalabraiu",
      "example": {
        "count": 1,
        "next": null,
        "previous": null,
        "results": [
          {
            "id": 3,
            "warehouse": "Ciudad de México"
          }
        ]
      },
      "type": "object",
      "properties": {
        "count": {
          "type": "integer",
          "format": "int32"
        },
        "next": {
          "type": "string"
        },
        "previous": {
          "type": "string"
        },
        "results": {
          "type": "array",
          "items": {
            "$ref": "#/definitions/Result3"
          }
        }
      },
      "required": [
        "count",
        "next",
        "previous",
        "results"
      ]
    },
    "Result3": {
      "title": "Result3",
      "example": {
        "id": 3,
        "warehouse": "Ciudad de México"
      },
      "type": "object",
      "properties": {
        "id": {
          "type": "integer",
          "format": "int32"
        },
        "warehouse": {
          "type": "string"
        }
      },
      "required": [
        "id",
        "warehouse"
      ]
    },
    "ok2": {
      "title": "ok2",
      "example": {
        "count": 2,
        "next": null,
        "previous": null,
        "results": [
          {
            "id": 1,
            "reference": "Poliforum Buenavista Eje 1 Nte 259",
            "code": "01003001"
          },
          {
            "id": 2,
            "reference": "San Pedro Garza García  Av Roberto Garza Sada 1000",
            "code": "02000101"
          }
        ]
      },
      "type": "object",
      "properties": {
        "count": {
          "type": "integer",
          "format": "int32"
        },
        "next": {
          "type": "string"
        },
        "previous": {
          "type": "string"
        },
        "results": {
          "type": "array",
          "items": {
            "$ref": "#/definitions/Result4"
          }
        }
      },
      "required": [
        "count",
        "next",
        "previous",
        "results"
      ]
    },
    "Result4": {
      "title": "Result4",
      "example": {
        "id": 1,
        "reference": "Poliforum Buenavista Eje 1 Nte 259",
        "code": "01003001"
      },
      "type": "object",
      "properties": {
        "id": {
          "type": "integer",
          "format": "int32"
        },
        "reference": {
          "type": "string"
        },
        "code": {
          "type": "string"
        }
      },
      "required": [
        "id",
        "reference",
        "code"
      ]
    }
  },
  "security": [
    {
      "Authorization": []
    }
  ],
  "tags": [
    {
      "name": "Pedidos"
    },
    {
      "name": "Misc",
      "description": ""
    }
  ]
}
